{
  "implemented": true,
  "name": "Pineco",
  "nationalPokedexNumber": 204,
  "primaryType": "bug",
  "abilities": [
    "sturdy",
    "h:overcoat"
  ],
  "baseStats": {
    "hp": 50,
    "attack": 65,
    "defence": 90,
    "special_attack": 35,
    "special_defence": 35,
    "speed": 15
  },
  "behaviour": {
    "resting": {
      "canSleep": true,
      "willSleepOnBed": true,
      "depth": "normal",
      "light": "0-4"
    }
  },
  "catchRate": 190,
  "maleRatio": 0.5,
  "shoulderMountable": false,
  "baseExperienceYield": 58,
  "experienceGroup": "medium_fast",
  "eggCycles": 20,
  "eggGroups": [
    "bug"
  ],
  "drops": {
    "amount": "1",
    "entries": [
      {
        "item": "minecraft:string",
        "percentage": 50
      }
    ]
  },
  "moves": [
    "1:protect",
    "1:tackle",
    "6:selfdestruct",
    "9:bugbite",
    "12:takedown",
    "17:rapidspin",
    "20:bide",
    "20:rollout",
    "23:curse",
    "23:naturalgift",
    "28:spikes",
    "31:payback",
    "34:explosion",
    "39:irondefense",
    "42:gyroball",
    "45:doubleedge",
    "egg:counter",
    "egg:doubleedge",
    "egg:endure",
    "egg:flail",
    "egg:pinmissile",
    "egg:powertrick",
    "egg:reflect",
    "egg:revenge",
    "egg:sandtomb",
    "egg:stealthrock",
    "egg:swift",
    "egg:toxicspikes",
    "tm:attract",
    "tm:bodyslam",
    "tm:bugbuzz",
    "tm:bulldoze",
    "tm:captivate",
    "tm:confide",
    "tm:dig",
    "tm:doubleteam",
    "tm:drillrun",
    "tm:earthquake",
    "tm:endure",
    "tm:explosion",
    "tm:facade",
    "tm:frustration",
    "tm:gigadrain",
    "tm:gyroball",
    "tm:helpinghand",
    "tm:hiddenpower",
    "tm:icespinner",
    "tm:irondefense",
    "tm:lightscreen",
    "tm:naturalgift",
    "tm:payback",
    "tm:poisonjab",
    "tm:pounce",
    "tm:protect",
    "tm:raindance",
    "tm:reflect",
    "tm:rest",
    "tm:return",
    "tm:reversal",
    "tm:rockblast",
    "tm:rockslide",
    "tm:rocksmash",
    "tm:rocktomb",
    "tm:round",
    "tm:sandstorm",
    "tm:secretpower",
    "tm:seedbomb",
    "tm:sleeptalk",
    "tm:solarbeam",
    "tm:spikes",
    "tm:stealthrock",
    "tm:strength",
    "tm:strugglebug",
    "tm:substitute",
    "tm:sunnyday",
    "tm:swagger",
    "tm:swift",
    "tm:takedown",
    "tm:terablast",
    "tm:toxic",
    "tm:toxicspikes",
    "tm:venoshock",
    "tutor:attract",
    "tutor:bide",
    "tutor:bodyslam",
    "tutor:bugbite",
    "tutor:counter",
    "tutor:curse",
    "tutor:defensecurl",
    "tutor:doubleedge",
    "tutor:doubleteam",
    "tutor:drillrun",
    "tutor:endure",
    "tutor:explosion",
    "tutor:flail",
    "tutor:frustration",
    "tutor:gigadrain",
    "tutor:gravity",
    "tutor:headbutt",
    "tutor:hiddenpower",
    "tutor:irondefense",
    "tutor:mimic",
    "tutor:painsplit",
    "tutor:pinmissile",
    "tutor:protect",
    "tutor:rapidspin",
    "tutor:reflect",
    "tutor:refresh",
    "tutor:rest",
    "tutor:return",
    "tutor:rockslide",
    "tutor:rocksmash",
    "tutor:rollout",
    "tutor:selfdestruct",
    "tutor:sleeptalk",
    "tutor:snore",
    "tutor:solarbeam",
    "tutor:spikes",
    "tutor:stealthrock",
    "tutor:strength",
    "tutor:stringshot",
    "tutor:substitute",
    "tutor:sunnyday",
    "tutor:swagger",
    "tutor:sweetscent",
    "tutor:swift",
    "tutor:tackle",
    "tutor:takedown",
    "tutor:toxic",
    "tutor:toxicspikes"
  ],
  "labels": [
    "gen2"
  ],
  "pokedex": [
    "cobblemon.species.pineco.desc"
  ],
  "evolutions": [
    {
      "id": "pineco_forretress",
      "variant": "level_up",
      "result": "forretress",
      "consumeHeldItem": false,
      "learnableMoves": [
        "heavyslam"
      ],
      "requirements": [
        {
          "variant": "level",
          "minLevel": 31
        }
      ]
    }
  ],
  "baseScale": 0.75,
  "hitbox": {
    "width": 0.9,
    "height": 0.95,
    "fixed": false
  },
  "baseFriendship": 70,
  "evYield": {
    "hp": 0,
    "attack": 0,
    "defence": 1,
    "special_attack": 0,
    "special_defence": 0,
    "speed": 0
  },
  "height": 6,
  "weight": 72,
  "aspects": [],
  "cannotDynamax": false
}