{
	"format_version": "1.8.0",
	"animations": {
		"animation.primarina.ground_idle": {
			"loop": true,
			"bones": {
				"body": {
					"rotation": [-5.3191, -19.92066, 1.81693],
					"position": [0, -26, 0]
				},
				"torso_upper": {
					"rotation": [37.5, 0, 0]
				},
				"torso_upper2": {
					"rotation": [-25.08377, -4.53051, 2.11751]
				},
				"arm_left": {
					"rotation": [21.03736, 18.86564, 58.76821]
				},
				"arm_left2": {
					"rotation": [0, 2.5, -5]
				},
				"arm_left3": {
					"rotation": [0, 0, 0]
				},
				"wrist_left": {
					"rotation": [0, 0, -30]
				},
				"fingers_left_rotation": {
					"rotation": [0, 0, -22.5]
				},
				"arm_right": {
					"rotation": [32.71125, -26.47099, -68.10281]
				},
				"arm_right2": {
					"rotation": [0.10912, 2.49762, 2.50238]
				},
				"arm_right3": {
					"rotation": [0, 0, 17.5]
				},
				"wrist_right": {
					"rotation": [2.5, 0, 15]
				},
				"fingers_right_rotation": {
					"rotation": [0, 0, 25]
				},
				"neck": {
					"rotation": [-0.44928, 14.99023, -2.57828]
				},
				"head": {
					"rotation": [7.19273, 7.79973, -1.51853]
				},
				"hair2": {
					"rotation": [-7.5, 0, 0]
				},
				"hair3": {
					"rotation": [-12.5, 0, 0]
				},
				"hair4": {
					"rotation": [10.34721, 12.06754, 3.28396]
				},
				"hair6": {
					"rotation": [11.60659, 7.99365, -12.73415]
				},
				"hair8": {
					"rotation": [-7.5, 0, 0]
				},
				"hair_end_left": {
					"rotation": [-7.5, 0, 0]
				},
				"torso_bottom": {
					"rotation": [69.9534, 0.32181, 0.36375]
				},
				"tail": {
					"rotation": [9.40899, 4.87477, -22.32157]
				},
				"tail2": {
					"rotation": [9.6658, 2.57594, -14.78217]
				},
				"tail3": {
					"rotation": [18.27783, -3.3081, -29.41843]
				},
				"tail4": {
					"rotation": [0, 0, -35]
				},
				"tail_ruff_front": {
					"rotation": [7.5, 0, 0]
				},
				"tail_ruff_front2": {
					"rotation": [27.5, 0, 0]
				},
				"tail_ruff_back": {
					"rotation": [-5, 0, 0]
				},
				"tail_ruff_left": {
					"rotation": [0, 0, 12.5]
				},
				"tail_ruff_right": {
					"rotation": [0, 0, -10]
				},
				"tail_end": {
					"rotation": [26.39218, 18.05776, 8.74472]
				}
			}
		},
		"animation.primarina.blink": {
			"animation_length": 0.16667,
			"bones": {
				"eyelash_left": {
					"position": {
						"0.0": [-0.1, 0, 0],
						"0.125": [-0.1, 0, 0],
						"0.1667": [0, 0, 0]
					}
				},
				"eyelid_left": {
					"position": {
						"0.0": [0.1, 0, -0.1],
						"0.125": [0.1, 0, -0.1],
						"0.1667": [0, 0, 0]
					}
				},
				"eyelash_right": {
					"position": {
						"0.0": [0.1, 0, 0],
						"0.125": [0.1, 0, 0],
						"0.1667": [0, 0, 0]
					}
				},
				"eyelid_right": {
					"position": {
						"0.0": [-0.1, 0, -0.1],
						"0.125": [-0.1, 0, -0.1],
						"0.1667": [0, 0, 0]
					}
				}
			}
		}
	}
}