{
  "implemented": true,
  "name": "Boldore",
  "nationalPokedexNumber": 525,
  "primaryType": "rock",
  "abilities": [
    "sturdy",
    "weakarmor",
    "h:sandforce"
  ],
  "baseStats": {
    "hp": 70,
    "attack": 105,
    "defence": 105,
    "special_attack": 50,
    "special_defence": 40,
    "speed": 20
  },
  "catchRate": 120,
  "maleRatio": 0.5,
  "shoulderMountable": false,
  "baseExperienceYield": 137,
  "experienceGroup": "medium_slow",
  "eggCycles": 15,
  "eggGroups": [
    "mineral"
  ],
  "moves": [
    "1:harden",
    "1:powergem",
    "1:sandattack",
    "1:stealthrock",
    "1:tackle",
    "12:mudslap",
    "16:smackdown",
    "20:irondefense",
    "24:headbutt",
    "30:rockslide",
    "36:rockblast",
    "42:sandstorm",
    "48:stoneedge",
    "54:explosion",
    "tm:attract",
    "tm:bodypress",
    "tm:bulldoze",
    "tm:confide",
    "tm:doubleteam",
    "tm:earthpower",
    "tm:earthquake",
    "tm:endure",
    "tm:explosion",
    "tm:facade",
    "tm:flashcannon",
    "tm:frustration",
    "tm:heavyslam",
    "tm:hiddenpower",
    "tm:irondefense",
    "tm:naturepower",
    "tm:powergem",
    "tm:protect",
    "tm:rest",
    "tm:return",
    "tm:rockblast",
    "tm:rockpolish",
    "tm:rockslide",
    "tm:rocksmash",
    "tm:rocktomb",
    "tm:round",
    "tm:sandstorm",
    "tm:sandtomb",
    "tm:secretpower",
    "tm:sleeptalk",
    "tm:smackdown",
    "tm:snore",
    "tm:stealthrock",
    "tm:stompingtantrum",
    "tm:stoneedge",
    "tm:strength",
    "tm:substitute",
    "tm:swagger",
    "tm:toxic",
    "tutor:block",
    "tutor:curse",
    "tutor:earthpower",
    "tutor:gravity",
    "tutor:heavyslam",
    "tutor:irondefense",
    "tutor:meteorbeam",
    "tutor:sleeptalk",
    "tutor:smackdown",
    "tutor:snore",
    "tutor:stealthrock",
    "tutor:stompingtantrum"
  ],
  "labels": [
    "gen5"
  ],
  "pokedex": [
    "cobblemon.species.boldore.desc"
  ],
  "preEvolution": "roggenrola",
  "evolutions": [
    {
      "id": "boldore_gigalith",
      "variant": "trade",
      "result": "gigalith",
      "consumeHeldItem": false,
      "learnableMoves": [],
      "requirements": []
    }
  ],
  "baseScale": 1,
  "hitbox": {
    "width": 0.9,
    "height": 0.9,
    "fixed": false
  },
  "baseFriendship": 50,
  "evYield": {
    "hp": 0,
    "attack": 1,
    "defence": 1,
    "special_attack": 0,
    "special_defence": 0,
    "speed": 0
  },
  "height": 9,
  "weight": 1020,
  "aspects": [],
  "cannotDynamax": false
}