{
  "implemented": true,
  "name": "Rookidee",
  "nationalPokedexNumber": 821,
  "primaryType": "flying",
  "abilities": [
    "keeneye",
    "unnerve",
    "h:bigpecks"
  ],
  "baseStats": {
    "hp": 38,
    "attack": 47,
    "defence": 35,
    "special_attack": 33,
    "special_defence": 35,
    "speed": 57
  },
  "catchRate": 255,
  "maleRatio": 0.5,
  "shoulderMountable": true,
  "baseExperienceYield": 49,
  "experienceGroup": "medium_slow",
  "eggCycles": 15,
  "eggGroups": [
    "flying"
  ],
  "behaviour": {
    "moving": {
      "fly": {
        "canFly": true
      }
    }
  },
  "moves": [
    "1:leer",
    "1:peck",
    "4:powertrip",
    "8:honeclaws",
    "12:furyattack",
    "16:pluck",
    "20:taunt",
    "24:scaryface",
    "28:drillpeck",
    "32:swagger",
    "36:bravebird",
    "egg:defog",
    "egg:rocksmash",
    "egg:roost",
    "egg:sandattack",
    "egg:skyattack",
    "egg:spite",
    "egg:tailwind",
    "tm:aerialace",
    "tm:agility",
    "tm:aircutter",
    "tm:airslash",
    "tm:assurance",
    "tm:attract",
    "tm:bravebird",
    "tm:endure",
    "tm:facade",
    "tm:faketears",
    "tm:fly",
    "tm:focusenergy",
    "tm:nastyplot",
    "tm:payback",
    "tm:protect",
    "tm:rest",
    "tm:retaliate",
    "tm:revenge",
    "tm:reversal",
    "tm:round",
    "tm:scaryface",
    "tm:sleeptalk",
    "tm:snore",
    "tm:substitute",
    "tm:swift",
    "tm:tailwind",
    "tm:takedown",
    "tm:taunt",
    "tm:terablast",
    "tm:thief",
    "tm:uturn",
    "tm:workup",
    "tutor:dualwingbeat"
  ],
  "labels": [
    "gen8"
  ],
  "pokedex": [
    "cobblemon.species.rookidee.desc"
  ],
  "evolutions": [
    {
      "id": "rookidee_corvisquire",
      "variant": "level_up",
      "result": "corvisquire",
      "consumeHeldItem": false,
      "learnableMoves": [],
      "requirements": [
        {
          "variant": "level",
          "minLevel": 18
        }
      ]
    }
  ],
  "baseScale": 0.7,
  "hitbox": {
    "width": 0.5,
    "height": 0.6,
    "fixed": false
  },
  "baseFriendship": 50,
  "evYield": {
    "hp": 0,
    "attack": 0,
    "defence": 0,
    "special_attack": 0,
    "special_defence": 0,
    "speed": 1
  },
  "height": 2,
  "weight": 18,
  "aspects": [],
  "cannotDynamax": false
}