{
  "implemented": true,
  "name": "Nidoran-F",
  "nationalPokedexNumber": 29,
  "primaryType": "poison",
  "abilities": [
    "poisonpoint",
    "rivalry",
    "h:hustle"
  ],
  "baseStats": {
    "hp": 55,
    "attack": 47,
    "defence": 52,
    "special_attack": 40,
    "special_defence": 40,
    "speed": 41
  },
  "behaviour": {
    "resting": {
      "canSleep": true,
      "willSleepOnBed": false,
      "depth": "normal",
      "light": "0-4"
    }
  },
  "catchRate": 235,
  "maleRatio": 0,
  "shoulderMountable": false,
  "baseExperienceYield": 55,
  "experienceGroup": "medium_slow",
  "eggCycles": 20,
  "eggGroups": [
    "monster",
    "field"
  ],
  "drops": {
    "amount": "1",
    "entries": [
      {
        "item": "cobblemon:poison_barb",
        "percentage": 2.5
      }
    ]
  },
  "moves": [
    "1:growl",
    "1:poisonsting",
    "5:scratch",
    "10:tailwhip",
    "15:furyswipes",
    "20:toxicspikes",
    "25:doublekick",
    "30:bite",
    "35:helpinghand",
    "40:toxic",
    "43:captivate",
    "45:flatter",
    "45:poisonfang",
    "50:crunch",
    "55:earthpower",
    "egg:beatup",
    "egg:charm",
    "egg:chipaway",
    "egg:counter",
    "egg:disable",
    "egg:endure",
    "egg:focusenergy",
    "egg:irontail",
    "egg:poisonfang",
    "egg:poisontail",
    "egg:pursuit",
    "egg:skullbash",
    "egg:supersonic",
    "egg:takedown",
    "egg:venomdrench",
    "tm:aerialace",
    "tm:attract",
    "tm:beatup",
    "tm:blizzard",
    "tm:bodyslam",
    "tm:captivate",
    "tm:charm",
    "tm:confide",
    "tm:crunch",
    "tm:cut",
    "tm:dig",
    "tm:doubleteam",
    "tm:earthpower",
    "tm:echoedvoice",
    "tm:endure",
    "tm:facade",
    "tm:focusenergy",
    "tm:frustration",
    "tm:helpinghand",
    "tm:hiddenpower",
    "tm:honeclaws",
    "tm:icebeam",
    "tm:irontail",
    "tm:naturalgift",
    "tm:poisonjab",
    "tm:protect",
    "tm:raindance",
    "tm:rest",
    "tm:return",
    "tm:rocksmash",
    "tm:round",
    "tm:secretpower",
    "tm:shadowclaw",
    "tm:shockwave",
    "tm:sleeptalk",
    "tm:sludgebomb",
    "tm:snore",
    "tm:strength",
    "tm:substitute",
    "tm:sunnyday",
    "tm:swagger",
    "tm:thief",
    "tm:thunder",
    "tm:thunderbolt",
    "tm:toxic",
    "tm:toxicspikes",
    "tm:venomdrench",
    "tm:venoshock",
    "tm:waterpulse",
    "tutor:attract",
    "tutor:beatup",
    "tutor:bide",
    "tutor:bite",
    "tutor:blizzard",
    "tutor:bodyslam",
    "tutor:charm",
    "tutor:counter",
    "tutor:crunch",
    "tutor:curse",
    "tutor:defensecurl",
    "tutor:detect",
    "tutor:dig",
    "tutor:disable",
    "tutor:doubleedge",
    "tutor:doublekick",
    "tutor:doubleteam",
    "tutor:endure",
    "tutor:facade",
    "tutor:focusenergy",
    "tutor:frustration",
    "tutor:furyswipes",
    "tutor:growl",
    "tutor:headbutt",
    "tutor:helpinghand",
    "tutor:hiddenpower",
    "tutor:icebeam",
    "tutor:irontail",
    "tutor:mimic",
    "tutor:mudslap",
    "tutor:poisonjab",
    "tutor:poisonsting",
    "tutor:protect",
    "tutor:rage",
    "tutor:raindance",
    "tutor:reflect",
    "tutor:rest",
    "tutor:return",
    "tutor:scratch",
    "tutor:shockwave",
    "tutor:skullbash",
    "tutor:sleeptalk",
    "tutor:sludgebomb",
    "tutor:snore",
    "tutor:substitute",
    "tutor:suckerpunch",
    "tutor:sunnyday",
    "tutor:superfang",
    "tutor:supersonic",
    "tutor:swagger",
    "tutor:tackle",
    "tutor:tailwhip",
    "tutor:takedown",
    "tutor:thief",
    "tutor:thunder",
    "tutor:thunderbolt",
    "tutor:toxic",
    "tutor:waterpulse"
  ],
  "labels": [
    "gen1"
  ],
  "pokedex": [
    "cobblemon.species.nidoranf.desc"
  ],
  "evolutions": [
    {
      "id": "nidoranf_nidorina",
      "variant": "level_up",
      "result": "nidorina",
      "consumeHeldItem": false,
      "learnableMoves": [],
      "requirements": [
        {
          "variant": "level",
          "minLevel": 16
        }
      ]
    }
  ],
  "baseScale": 0.7,
  "hitbox": {
    "width": 0.7,
    "height": 0.8,
    "fixed": false
  },
  "baseFriendship": 50,
  "evYield": {
    "hp": 1,
    "attack": 0,
    "defence": 0,
    "special_attack": 0,
    "special_defence": 0,
    "speed": 0
  },
  "height": 4,
  "weight": 70,
  "aspects": [],
  "cannotDynamax": false
}